Group 17 Group assignment 2
…
## `summarise()` ungrouping output (override with `.groups` argument)

print(cooccurrence)

## # A tibble: 465 x 2
##    brand_key         count
##    <chr>             <int>
##  1 Acronis-Acronis    3659
##  2 Acronis-Adobe        11
##  3 Acronis-Amazon      180
##  4 Acronis-Apple        11
##  5 Acronis-Avanquest    12
##  6 Acronis-Avast         0
##  7 Acronis-Corel         2
##  8 Acronis-Cyberlink     0
##  9 Acronis-Encore        1
## 10 Acronis-Garmin        0
## #  with 455 more rows
…
